[32mINFO    [0m Utility.customLogger:test_Login.py:13 *************** Test_001 Verifying Home Page Test *****************
[32mINFO    [0m Utility.customLogger:test_Login.py:14 ****Started Home page title test ****
[32mINFO    [0m Utility.customLogger:test_Login.py:16 ****Opening URL****
[32mINFO    [0m Utility.customLogger:test_Login.py:19 **** Home page title test passed ****